<svg width="11" height="19" viewBox="0 0 11 19" fill="none" xmlns="http://www.w3.org/2000/svg">
<path d="M5.50041 0C2.7976 0 0.598885 2.19965 0.598885 4.90379C0.598885 7.60771 2.7976 9.80637 5.50041 9.80637C8.20312 9.80637 10.4008 7.60771 10.4008 4.90379C10.4008 2.19965 8.20314 0 5.50041 0ZM5.50041 2.87316C6.61903 2.87316 7.52867 3.78453 7.52867 4.90379C7.52867 6.02256 6.61904 6.93323 5.50041 6.93323C4.38156 6.93323 3.47096 6.02258 3.47096 4.90379C3.47096 3.78453 4.38156 2.87316 5.50041 2.87316ZM1.45933 9.97321C0.974391 9.96567 0.497522 10.2048 0.220891 10.6459C-0.20186 11.3179 0.000657149 12.2046 0.670701 12.6273C1.55699 13.1836 2.51872 13.5784 3.51608 13.8059L0.776925 16.5478C0.216182 17.1091 0.216656 18.0183 0.777514 18.5796C1.05863 18.8598 1.42526 19 1.79283 19C2.16002 19 2.5279 18.8596 2.80815 18.579L5.49925 15.8852L8.19272 18.579C8.75298 19.1402 9.66149 19.1402 10.2227 18.579C10.7837 18.0181 10.7837 17.108 10.2227 16.5478L7.4824 13.8065C8.48004 13.579 9.44209 13.184 10.3278 12.6273C10.9991 12.2046 11.202 11.317 10.7794 10.6459C10.3563 9.97382 9.47042 9.77136 8.79856 10.1947C6.79196 11.4576 4.20646 11.4568 2.20049 10.1947C1.96958 10.0492 1.71335 9.97718 1.45933 9.97323V9.97321Z" fill="#31303F"/>
</svg>
