<svg width="24" height="20" viewBox="0 0 24 20" fill="none" xmlns="http://www.w3.org/2000/svg">
<path d="M12 0.76001C0.2064 0.76001 0 1.80881 0 10C0 18.1912 0.2064 19.24 12 19.24C23.7936 19.24 24 18.1912 24 10C24 1.80881 23.7936 0.76001 12 0.76001ZM15.846 10.4008L10.458 12.916C9.9864 13.1344 9.6 12.8896 9.6 12.3688V7.63121C9.6 7.11161 9.9864 6.86561 10.458 7.08401L15.846 9.59921C16.3176 9.82001 16.3176 10.18 15.846 10.4008Z" fill="#8A53E4"/>
</svg>
